\relax 
\providecommand\zref@newlabel[2]{}
\providecommand\hyper@newdestlabel[2]{}
\providecommand\HyperFirstAtBeginDocument{\AtBeginDocument}
\HyperFirstAtBeginDocument{\ifx\hyper@anchor\@undefined
\global\let\oldcontentsline\contentsline
\gdef\contentsline#1#2#3#4{\oldcontentsline{#1}{#2}{#3}}
\global\let\oldnewlabel\newlabel
\gdef\newlabel#1#2{\newlabelxx{#1}#2}
\gdef\newlabelxx#1#2#3#4#5#6{\oldnewlabel{#1}{{#2}{#3}}}
\AtEndDocument{\ifx\hyper@anchor\@undefined
\let\contentsline\oldcontentsline
\let\newlabel\oldnewlabel
\fi}
\fi}
\global\let\hyper@last\relax 
\gdef\HyperFirstAtBeginDocument#1{#1}
\providecommand\HyField@AuxAddToFields[1]{}
\providecommand\HyField@AuxAddToCoFields[2]{}
\citation{begue2017automatic}
\citation{dileep2019ayurleaf}
\citation{zhang2019medical}
\@writefile{toc}{\contentsline {title}{Morphological Classification of selected medicinal plants leaf Convolutional Neural Networks}{1}{chapter.1}\protected@file@percent }
\@writefile{toc}{\authcount {2}}
\@writefile{toc}{\contentsline {author}{Avuya Deyi\unskip {}, Arnaud Nguembang Fadja\unskip {}, Eleonora Goosen\unskip {}, Xavier Siwe Noundou\unskip {} \and Marcel Atemkeng\unskip {}}{1}{chapter.1}\protected@file@percent }
\@writefile{toc}{\contentsline {section}{\numberline {1}Introduction}{1}{section.1.1}\protected@file@percent }
\newlabel{intro}{{1}{1}{Introduction}{section.1.1}{}}
\citation{krizhevsky2012imagenet}
\citation{ghosal2020rice}
\citation{hassan2021identification}
\citation{geetharamani2019identification}
\citation{hussein2020automated}
\citation{michie1994machine}
\citation{lecun2015deep}
\citation{murphy2012machine}
\citation{albawi2017understanding}
\citation{druzhkov2016survey}
\@writefile{toc}{\contentsline {section}{\numberline {2}Deep Learning and Convolutional Neural Networks}{2}{section.1.2}\protected@file@percent }
\newlabel{dl_cnn}{{2}{2}{Deep Learning and Convolutional Neural Networks}{section.1.2}{}}
\citation{bottou2012stochastic}
\citation{phansalkar1994analysis}
\citation{bottou2012stochastic}
\citation{phansalkar1994analysis}
\citation{khirirat2017mini}
\citation{srivastava2014dropout}
\citation{goodfellow2016deep}
\providecommand*\caption@xref[2]{\@setref\relax\@undefined{#1}}
\newlabel{convolution_op}{{1a}{5}{Convolution operation.\relax }{figure.caption.2}{}}
\newlabel{sub@convolution_op}{{a}{5}{Convolution operation.\relax }{figure.caption.2}{}}
\newlabel{pooling_op}{{1b}{5}{Pooling operation\relax }{figure.caption.2}{}}
\newlabel{sub@pooling_op}{{b}{5}{Pooling operation\relax }{figure.caption.2}{}}
\@writefile{lof}{\contentsline {figure}{\numberline {1}{\ignorespaces  Convolution and pooling operations.\relax }}{5}{figure.caption.2}\protected@file@percent }
\newlabel{convolution_pooling_op}{{1}{5}{Convolution and pooling operations.\relax }{figure.caption.2}{}}
\@writefile{toc}{\contentsline {section}{\numberline {3}Medicinal plants}{5}{section.1.3}\protected@file@percent }
\newlabel{medecine_plant}{{3}{5}{Medicinal plants}{section.1.3}{}}
\citation{waldchen2018plant}
\citation{van2020automatic}
\citation{huixian2020analysis}
\citation{sun2017deep}
\citation{kho2017automated}
\citation{kho2017automated}
\@writefile{lof}{\contentsline {figure}{\numberline {2}{\ignorespaces Fully connected neural network.\relax }}{6}{figure.caption.3}\protected@file@percent }
\newlabel{fig:fullyNetwork}{{2}{6}{Fully connected neural network.\relax }{figure.caption.3}{}}
\@writefile{toc}{\contentsline {section}{\numberline {4}Related Work}{6}{section.1.4}\protected@file@percent }
\newlabel{related}{{4}{6}{Related Work}{section.1.4}{}}
\citation{jeon2017plant}
\citation{szegedy2015going}
\citation{geetharamani2019identification}
\citation{geetharamani2019identification}
\citation{li2020we}
\citation{pawara2017data}
\citation{pawara2017data}
\citation{7404017}
\citation{7404017}
\citation{guo2003knn}
\citation{guo2003knn}
\citation{bala2017classification}
\citation{yang2010kernel}
\citation{yang2010kernel}
\@writefile{toc}{\contentsline {section}{\numberline {5}Dataset collection}{8}{section.1.5}\protected@file@percent }
\newlabel{dataset_collect}{{5}{8}{Dataset collection}{section.1.5}{}}
\@writefile{lof}{\contentsline {figure}{\numberline {3}{\ignorespaces The three Brachylaena species\relax }}{8}{figure.caption.4}\protected@file@percent }
\newlabel{brachylaena_img}{{3}{8}{The three Brachylaena species\relax }{figure.caption.4}{}}
\citation{keshari2018learning}
\citation{devries2017dataset}
\citation{devries2017dataset}
\@writefile{toc}{\contentsline {section}{\numberline {6}Experiments}{9}{section.1.6}\protected@file@percent }
\newlabel{experiments}{{6}{9}{Experiments}{section.1.6}{}}
\@writefile{toc}{\contentsline {subsection}{\numberline {6.1}Dataset}{9}{subsection.1.6.1}\protected@file@percent }
\newlabel{Dataset}{{6.1}{9}{Dataset}{subsection.1.6.1}{}}
\@writefile{toc}{\contentsline {subsection}{\numberline {6.2}Data Augmentation}{9}{subsection.1.6.2}\protected@file@percent }
\newlabel{Data Augmentation}{{6.2}{9}{Data Augmentation}{subsection.1.6.2}{}}
\@writefile{lof}{\contentsline {figure}{\numberline {4}{\ignorespaces Images augmented from 1 image\relax }}{9}{figure.caption.5}\protected@file@percent }
\newlabel{augmented_img}{{4}{9}{Images augmented from 1 image\relax }{figure.caption.5}{}}
\citation{aly2005survey}
\citation{voloshynovskiy2009multiclass}
\@writefile{toc}{\contentsline {subsection}{\numberline {6.3}Multi-class Classification}{10}{subsection.1.6.3}\protected@file@percent }
\newlabel{Multi-class Classification}{{6.3}{10}{Multi-class Classification}{subsection.1.6.3}{}}
\@writefile{lof}{\contentsline {figure}{\numberline {5}{\ignorespaces One vs Rest multi-classifier\relax }}{11}{figure.caption.6}\protected@file@percent }
\newlabel{multiclass1_img}{{5}{11}{One vs Rest multi-classifier\relax }{figure.caption.6}{}}
\@writefile{lof}{\contentsline {figure}{\numberline {6}{\ignorespaces One vs All(One vs Rest) multi-classifier\relax }}{11}{figure.caption.7}\protected@file@percent }
\newlabel{multiclass2_img}{{6}{11}{One vs All(One vs Rest) multi-classifier\relax }{figure.caption.7}{}}
\citation{krizhevsky2012imagenet}
\citation{lecun2015lenet}
\citation{krizhevsky2012imagenet}
\@writefile{toc}{\contentsline {subsection}{\numberline {6.4}AlexNet Architecture}{12}{subsection.1.6.4}\protected@file@percent }
\newlabel{AlexNet Architecture}{{6.4}{12}{AlexNet Architecture}{subsection.1.6.4}{}}
\@writefile{lof}{\contentsline {figure}{\numberline {7}{\ignorespaces AlexNet Architecture\relax }}{12}{figure.caption.8}\protected@file@percent }
\newlabel{fig:AlexNet}{{7}{12}{AlexNet Architecture\relax }{figure.caption.8}{}}
\@writefile{toc}{\contentsline {subsection}{\numberline {6.5}Fine tuning AlexNet model}{12}{subsection.1.6.5}\protected@file@percent }
\newlabel{Fine tuning AlexNet model}{{6.5}{12}{Fine tuning AlexNet model}{subsection.1.6.5}{}}
\citation{kandel2020comparative}
\citation{heusel2017gans}
\citation{heusel2017gans}
\citation{kandel2020comparative}
\@writefile{toc}{\contentsline {subsection}{\numberline {6.6}Cross-validation}{13}{subsection.1.6.6}\protected@file@percent }
\newlabel{Cross Validation}{{6.6}{13}{Cross-validation}{subsection.1.6.6}{}}
\citation{moreno2012study}
\@writefile{lof}{\contentsline {figure}{\numberline {8}{\ignorespaces Cross Validation\relax }}{14}{figure.caption.9}\protected@file@percent }
\newlabel{cross_validation}{{8}{14}{Cross Validation\relax }{figure.caption.9}{}}
\@writefile{toc}{\contentsline {subsection}{\numberline {6.7}Results}{15}{subsection.1.6.7}\protected@file@percent }
\newlabel{Results}{{6.7}{15}{Results}{subsection.1.6.7}{}}
\@writefile{lot}{\contentsline {table}{\numberline {1}{\ignorespaces The results generated using Adam optimizer\relax }}{15}{table.caption.10}\protected@file@percent }
\newlabel{tab:AdamTable_img}{{1}{15}{The results generated using Adam optimizer\relax }{table.caption.10}{}}
\newlabel{convolution_op}{{9a}{16}{Model 1 accuracy curve\relax }{figure.caption.11}{}}
\newlabel{sub@convolution_op}{{a}{16}{Model 1 accuracy curve\relax }{figure.caption.11}{}}
\newlabel{pooling_op}{{9b}{16}{Model 4 accuracy curve\relax }{figure.caption.11}{}}
\newlabel{sub@pooling_op}{{b}{16}{Model 4 accuracy curve\relax }{figure.caption.11}{}}
\@writefile{lof}{\contentsline {figure}{\numberline {9}{\ignorespaces (learning rate = $1\times 10^{-3}$) vs (learning rate = $1\times 10^{-4})$\relax }}{16}{figure.caption.11}\protected@file@percent }
\newlabel{convolution_pooling_op}{{9}{16}{(learning rate = $1\times 10^{-3}$) vs (learning rate = $1\times 10^{-4})$\relax }{figure.caption.11}{}}
\@writefile{lof}{\contentsline {figure}{\numberline {10}{\ignorespaces Confusion Matrix of Model 4 \relax }}{16}{figure.caption.12}\protected@file@percent }
\newlabel{adamBestModel_matrix_img}{{10}{16}{Confusion Matrix of Model 4 \relax }{figure.caption.12}{}}
\@writefile{lot}{\contentsline {table}{\numberline {2}{\ignorespaces Models Generated from Nadam Optimizer\relax }}{17}{table.caption.13}\protected@file@percent }
\newlabel{tab:NadamTable_img}{{2}{17}{Models Generated from Nadam Optimizer\relax }{table.caption.13}{}}
\newlabel{convolution_op}{{11a}{17}{Model 9 accuracy curve\relax }{figure.caption.14}{}}
\newlabel{sub@convolution_op}{{a}{17}{Model 9 accuracy curve\relax }{figure.caption.14}{}}
\newlabel{pooling_op}{{11b}{17}{Model 10 accuracy curve\relax }{figure.caption.14}{}}
\newlabel{sub@pooling_op}{{b}{17}{Model 10 accuracy curve\relax }{figure.caption.14}{}}
\@writefile{lof}{\contentsline {figure}{\numberline {11}{\ignorespaces (learning rate = $1\times 10^{-3}$) vs (learning rate = $1\times 10^{-4})$\relax }}{17}{figure.caption.14}\protected@file@percent }
\newlabel{training curves}{{11}{17}{(learning rate = $1\times 10^{-3}$) vs (learning rate = $1\times 10^{-4})$\relax }{figure.caption.14}{}}
\@writefile{lof}{\contentsline {figure}{\numberline {12}{\ignorespaces Confusion Matrix of Model 10 \relax }}{18}{figure.caption.15}\protected@file@percent }
\newlabel{nadam_matrix}{{12}{18}{Confusion Matrix of Model 10 \relax }{figure.caption.15}{}}
\newlabel{convolution_op}{{13a}{18}{Accuracy of Model 4 vs Model 12\relax }{figure.caption.16}{}}
\newlabel{sub@convolution_op}{{a}{18}{Accuracy of Model 4 vs Model 12\relax }{figure.caption.16}{}}
\newlabel{pooling_op}{{13b}{18}{Loss of Model 4 vs Model 12\relax }{figure.caption.16}{}}
\newlabel{sub@pooling_op}{{b}{18}{Loss of Model 4 vs Model 12\relax }{figure.caption.16}{}}
\@writefile{lof}{\contentsline {figure}{\numberline {13}{\ignorespaces The best two models\relax }}{18}{figure.caption.16}\protected@file@percent }
\newlabel{Bar_Graphs}{{13}{18}{The best two models\relax }{figure.caption.16}{}}
\@writefile{lot}{\contentsline {table}{\numberline {3}{\ignorespaces Cross validation results\relax }}{19}{table.caption.17}\protected@file@percent }
\newlabel{tab:CrossValidationTable}{{3}{19}{Cross validation results\relax }{table.caption.17}{}}
\@writefile{toc}{\contentsline {section}{\numberline {7}Conclusion}{19}{section.1.7}\protected@file@percent }
\newlabel{conclusion}{{7}{19}{Conclusion}{section.1.7}{}}
\bibstyle{splncs03}
\bibdata{bibliography/journals_short,bibliography/booktitles_long,bibliography/booktitles_springer,bibliography/series_long,bibliography/series_springer,bibliography/publishers_long,bibliography/bibl}
\bibcite{albawi2017understanding}{1}
\bibcite{aly2005survey}{2}
\bibcite{bala2017classification}{3}
\bibcite{begue2017automatic}{4}
\bibcite{bottou2012stochastic}{5}
\bibcite{devries2017dataset}{6}
\bibcite{dileep2019ayurleaf}{7}
\bibcite{druzhkov2016survey}{8}
\bibcite{geetharamani2019identification}{9}
\bibcite{ghosal2020rice}{10}
\bibcite{goodfellow2016deep}{11}
\bibcite{guo2003knn}{12}
\bibcite{hassan2021identification}{13}
\bibcite{heusel2017gans}{14}
\bibcite{huixian2020analysis}{15}
\bibcite{jeon2017plant}{16}
\bibcite{kandel2020comparative}{17}
\bibcite{keshari2018learning}{18}
\bibcite{khirirat2017mini}{19}
\bibcite{kho2017automated}{20}
\bibcite{krizhevsky2012imagenet}{21}
\bibcite{lecun2015deep}{22}
\bibcite{lecun2015lenet}{23}
\bibcite{li2020we}{24}
\bibcite{michie1994machine}{25}
\bibcite{moreno2012study}{26}
\bibcite{murphy2012machine}{27}
\bibcite{pawara2017data}{28}
\bibcite{phansalkar1994analysis}{29}
\bibcite{7404017}{30}
\bibcite{srivastava2014dropout}{31}
\bibcite{sun2017deep}{32}
\bibcite{szegedy2015going}{33}
\bibcite{van2020automatic}{34}
\bibcite{voloshynovskiy2009multiclass}{35}
\bibcite{waldchen2018plant}{36}
\bibcite{yang2010kernel}{37}
\gdef \@abspage@last{21}
